epoch,acc,loss,mean_squared_error,val_acc,val_loss,val_mean_squared_error
0,0.1686508007761505,0.1267636058231195,0.1267636058231195,0.24463519690630262,0.1215378337215968,0.1215378337215968
1,0.20634921309020784,0.12145325500104162,0.12145325500104162,0.3004291887574953,0.11848970077324322,0.11848970077324322
2,0.2222222307076057,0.11749117738670772,0.11749117738670772,0.31502146399839753,0.1166666378726775,0.1166666378726775
3,0.26785715193384224,0.1127293368594514,0.1127293368594514,0.3210300484951985,0.11498780420665577,0.11498780420665577
4,0.3035714377959569,0.10905209814922677,0.10905209814922677,0.3682403487964761,0.11356627528631635,0.11356627528631635
5,0.2896825501488315,0.10811217594891787,0.10811217594891787,0.4206008649946794,0.11335685486573518,0.11335685486573518
6,0.3214285812444157,0.10847770660701725,0.10847770660701725,0.4120171734447643,0.11302519628034641,0.11302519628034641
7,0.3035714377959569,0.10767169493354029,0.10767169493354029,0.41630901921972185,0.1112526491955882,0.1112526491955882
8,0.347222232984172,0.10458320058468315,0.10458320058468315,0.4231759720350028,0.10987199684325206,0.10987199684325206
9,0.3095238196353118,0.1047905848051111,0.1047905848051111,0.44892704497079483,0.11094380890223089,0.11094380890223089
10,0.33333334347440136,0.1028255753012167,0.1028255753012167,0.46437768916971184,0.10870362238183041,0.10870362238183041
11,0.35317461461656624,0.1040847600541181,0.1040847600541181,0.4729613800928828,0.10826768306255852,0.10826768306255852
12,0.3412698511448171,0.10189060711612304,0.10189060711612304,0.4798283320383964,0.10763977968129988,0.10763977968129988
13,0.3472222342259354,0.10207180803020795,0.10207180803020795,0.495278976761732,0.10867493032385862,0.10867493032385862
14,0.3234127089381218,0.10144037794735697,0.10144037794735697,0.49785408330321823,0.10698681680621508,0.10698681680621508
15,0.37103175599541927,0.09841596842226055,0.09841596842226055,0.5081545132040466,0.10497688558352351,0.10497688558352351
16,0.4126984253525734,0.09661520013792647,0.09661520013792647,0.515879834990133,0.10533884292060725,0.10533884292060725
17,0.4166666782564587,0.0953052778624826,0.0953052778624826,0.5562231830005482,0.10601358023580051,0.10601358023580051
18,0.4047619156125519,0.09601426579886013,0.09601426579886013,0.5553648130704405,0.10451205653885914,0.10451205653885914
19,0.4424603308240573,0.09433512720796797,0.09433512720796797,0.5836909930721373,0.10496211927144312,0.10496211927144312
20,0.4206349315742652,0.09532863739877939,0.09532863739877939,0.5974248983701411,0.10433285593698721,0.10433285593698721
21,0.46230160051749813,0.09182063210755587,0.09182063210755587,0.5965665290539869,0.10226372972514497,0.10226372972514497
22,0.4484127105938064,0.09286710961411397,0.09286710961411397,0.5922746835476339,0.10096327512257217,0.10096327512257217
23,0.49404763326876694,0.09047387312683794,0.09047387312683794,0.5922746833685641,0.10018486016441952,0.10018486016441952
24,0.5158730304489533,0.08608387881476018,0.08608387881476018,0.5871244684565221,0.09996056042755494,0.09996056042755494
25,0.5158730310698351,0.08614615563096271,0.08614615563096271,0.5562231811331065,0.09743621439589067,0.09743621439589067
26,0.5416666828095913,0.08187320398994619,0.08187320398994619,0.5733905627108439,0.09742860717483089,0.09742860717483089
27,0.5238095389472114,0.08160811812720364,0.08160811812720364,0.5785407767275372,0.09621387068821764,0.09621387068821764
28,0.5476190609236559,0.08090631001525456,0.08090631001525456,0.6034334803599657,0.09518164469073066,0.09518164469073066
29,0.5634920777132114,0.079266549864163,0.079266549864163,0.600858373038247,0.09432154486971096,0.09432154486971096
30,0.583333348027534,0.07689465023577213,0.07689465023577213,0.6060085874130797,0.0933062427797127,0.0933062427797127
31,0.5654762072695626,0.07870680114461316,0.07870680114461316,0.6060085875026147,0.09176837953263214,0.09176837953263214
32,0.6547619216144085,0.07149094079310696,0.07149094079310696,0.6145922783362507,0.0907494195858856,0.0907494195858856
33,0.6091270012160143,0.07314311278363068,0.07314311278363068,0.6094420639614179,0.08938889842032746,0.08938889842032746
34,0.6170635076446666,0.0688112805235303,0.0688112805235303,0.609442063871883,0.0891244646173786,0.0891244646173786
35,0.6289682698746523,0.07124600761259596,0.07124600761259596,0.6085836948243334,0.08773509378808794,0.08773509378808794
36,0.6488095399820142,0.06899666310184532,0.06899666310184532,0.6145922786943903,0.08672112830796642,0.08672112830796642
37,0.660714302625921,0.0655663759033713,0.0655663759033713,0.6283261841714638,0.08535423269675237,0.08535423269675237
38,0.6785714444186952,0.06460485219334562,0.06460485219334562,0.6223176005700115,0.08459796706162585,0.08459796706162585
39,0.6924603337215053,0.05934119058979882,0.05934119058979882,0.6197424936959672,0.08385392904937139,0.08385392904937139
40,0.7083333478205733,0.0608333765477356,0.0608333765477356,0.6257510780136984,0.0828481295778588,0.0828481295778588
41,0.7103174740655555,0.057705825142976314,0.057705825142976314,0.6386266134583387,0.08139871090326795,0.08139871090326795
42,0.7321428714527024,0.0553463906981051,0.0553463906981051,0.6437768286389854,0.07885708769827346,0.07885708769827346
43,0.7043650949166881,0.05726921848124928,0.05726921848124928,0.6609442108434669,0.07853670405281923,0.07853670405281923
44,0.7003968407710394,0.058670024697979294,0.058670024697979294,0.6772532240003987,0.07747403654662588,0.07747403654662588
45,0.7182539825638136,0.05382852019586911,0.05382852019586911,0.6892703914719078,0.07736656969740922,0.07736656969740922
46,0.7043650949166881,0.05628694330031673,0.05628694330031673,0.720171678974393,0.07542051525527707,0.07542051525527707
47,0.7321428706248602,0.054218614564484194,0.054218614564484194,0.7064377733182498,0.07403519008200728,0.07403519008200728
48,0.714285728832086,0.05620145655444099,0.05620145655444099,0.7287553707033779,0.07179770047712447,0.07179770047712447
49,0.7420635057820214,0.04921769359821661,0.04921769359821661,0.7313304779355618,0.0709379548639111,0.0709379548639111
50,0.7519841392834982,0.04938299877620819,0.04938299877620819,0.7381974295996802,0.06982642050468775,0.06982642050468775
51,0.7857142972449461,0.04363946118650751,0.04363946118650751,0.7424892746583587,0.06940519230848961,0.06940519230848961
52,0.7678571546243297,0.04808091395534575,0.04808091395534575,0.7459227512962316,0.06896521222084169,0.06896521222084169
53,0.7182539829777347,0.052470329359898135,0.052470329359898135,0.7562231811203158,0.06742585638633933,0.06742585638633933
54,0.769841282731957,0.048960234775828816,0.048960234775828816,0.7502145965339799,0.06661619946786279,0.06661619946786279
55,0.7559523917734623,0.04870153375345075,0.04870153375345075,0.751072965312925,0.06662772431771787,0.06662772431771787
56,0.7956349315742651,0.04214892764058378,0.04214892764058378,0.7708154547495903,0.06615373438514985,0.06615373438514985
57,0.7638889017204443,0.04722277576284897,0.04722277576284897,0.7656652403747575,0.06514200803897716,0.06514200803897716
58,0.7698412835597992,0.04575928197138839,0.04575928197138839,0.7673819789175312,0.06438346409379772,0.06438346409379772
59,0.7738095360497633,0.04531993750586278,0.04531993750586278,0.7630901330530387,0.06394219783081298,0.06394219783081298
60,0.7936508055362437,0.042310757213272154,0.042310757213272154,0.7742489304921146,0.06362700365196969,0.06362700365196969
61,0.7500000128315555,0.047414258290599615,0.047414258290599615,0.7587982876362207,0.06288779913832518,0.06288779913832518
62,0.7976190580262078,0.040869978411744036,0.040869978411744036,0.7768240377242984,0.0633988367075844,0.0633988367075844
63,0.8214285816583369,0.0398327410997202,0.0398327410997202,0.7802575144517063,0.061428752802052566,0.061428752802052566
64,0.7678571554521719,0.04473704000702128,0.04473704000702128,0.7690987165649561,0.060672862299961786,0.060672862299961786
65,0.8055555663175054,0.03928480754580556,0.03928480754580556,0.7751073002559432,0.06040461598375868,0.06040461598375868
66,0.7857142980727885,0.042280005174688995,0.042280005174688995,0.7733905618027045,0.06066700634076919,0.06066700634076919
67,0.8234127089381218,0.03878972267072337,0.03878972267072337,0.7742489312979285,0.059783437773345494,0.059783437773345494
68,0.8293650891217921,0.035683749379434936,0.035683749379434936,0.7690987160277469,0.05920292706303239,0.05920292706303239
69,0.7936508042944802,0.04227422388632678,0.04227422388632678,0.7708154543914508,0.05966139311906347,0.05966139311906347
70,0.8134920733670393,0.0385167795789635,0.0385167795789635,0.7759656687662837,0.05858688232395373,0.05858688232395373
71,0.765873028172387,0.04433294878819854,0.04433294878819854,0.7716738233494657,0.05920078527481373,0.05920078527481373
72,0.7876984253525734,0.04348605611206343,0.04348605611206343,0.7716738233494657,0.05845074177524607,0.05845074177524607
73,0.8333333428535197,0.0348786591591003,0.0348786591591003,0.8025751102124161,0.05819791318913557,0.05819791318913557
74,0.7976190592679713,0.04091235946786279,0.04091235946786279,0.7948497887077249,0.05689561452416557,0.05689561452416557
75,0.8373015965852473,0.03319788362326411,0.03319788362326411,0.7716738235285354,0.05724073945062011,0.05724073945062011
76,0.7857142972449461,0.04165991104673594,0.04165991104673594,0.7725321923970153,0.0576297058410345,0.0576297058410345
77,0.8353174697193835,0.03570967599322709,0.03570967599322709,0.7690987158486772,0.057649306612419786,0.057649306612419786
78,0.8591269925236702,0.030653041292680427,0.030653041292680427,0.7742489310293239,0.056015019604620755,0.056015019604620755
79,0.8611111189756129,0.0324293303565355,0.0324293303565355,0.7699570853439012,0.05564539255818699,0.05564539255818699
80,0.8353174701333046,0.03291199525604801,0.03291199525604801,0.7802575141831017,0.05503595489895394,0.05503595489895394
81,0.8253968358039856,0.03580233619949366,0.03580233619949366,0.7802575141831017,0.0555436311884017,0.0555436311884017
82,0.7857142976588674,0.04158079210578257,0.04158079210578257,0.7579399176037874,0.05668999383631773,0.05668999383631773
83,0.8134920746088028,0.0379452044920375,0.0379452044920375,0.7690987161172818,0.05582635732261275,0.05582635732261275
84,0.8174603283405304,0.036767115994330704,0.036767115994330704,0.7742489305816495,0.05408940474230237,0.05408940474230237
85,0.8452381044626236,0.03346501196210738,0.03346501196210738,0.775965668497679,0.05494939637504537,0.05494939637504537
86,0.8432539775967598,0.03132735483167279,0.03132735483167279,0.7699570851648314,0.054897581538270075,0.054897581538270075
87,0.8392857238650322,0.034709737899700284,0.034709737899700284,0.7776824070404528,0.05293233332924907,0.05293233332924907
88,0.829365088707871,0.03507602528487849,0.03507602528487849,0.7751072993605945,0.05383314601594546,0.05383314601594546
89,0.8432539775967598,0.032077255185868125,0.032077255185868125,0.7630901324262946,0.05319743229488989,0.05319743229488989
90,0.829365088707871,0.03534249192388314,0.03534249192388314,0.7879828357005836,0.052911548715795696,0.052911548715795696
91,0.8472222309145663,0.032947407498593546,0.032947407498593546,0.7965665269691034,0.05168308936946338,0.05168308936946338
92,0.8432539771828387,0.034161086773060054,0.034161086773060054,0.765665239300339,0.052288676792551385,0.052288676792551385
93,0.8492063581943512,0.033391544204075925,0.033391544204075925,0.7896995740642875,0.05232327483197745,0.05232327483197745
94,0.8750000070366595,0.02656901115228215,0.02656901115228215,0.7776824067718481,0.05235339554508622,0.05235339554508622
95,0.8630952462553978,0.028833299433042865,0.028833299433042865,0.7716738232599307,0.05112195264061714,0.05112195264061714
96,0.841269850730896,0.03249032887914735,0.03249032887914735,0.7733905615340998,0.05081896670010113,0.05081896670010113
97,0.8253968349761434,0.03713075048290193,0.03713075048290193,0.7802575142726366,0.05145490268929951,0.05145490268929951
98,0.8551587383780215,0.028727048349941872,0.028727048349941872,0.8034334802320586,0.04987112625167707,0.04987112625167707
99,0.8472222313284874,0.03219013931811787,0.03219013931811787,0.8085836934685195,0.05154929104849601,0.05154929104849601
100,0.8412698503169749,0.03196334920681289,0.03196334920681289,0.802575110046137,0.05033455177351766,0.05033455177351766
101,0.8551587387919426,0.03148193253905952,0.03148193253905952,0.7819742521886662,0.05072988836452814,0.05072988836452814
102,0.8650793731212616,0.030414280242338363,0.030414280242338363,0.7768240379033682,0.05003795969927291,0.05003795969927291
103,0.8750000074505806,0.028270102743085265,0.028270102743085265,0.7811158833201862,0.04910877515567384,0.04910877515567384
104,0.8492063581943512,0.031151970351250686,0.031151970351250686,0.7673819775745081,0.050814464205095625,0.050814464205095625
105,0.8730158797568746,0.02897306901286356,0.02897306901286356,0.7759656689453535,0.05002816652847102,0.05002816652847102
106,0.8730158805847168,0.02596502566464349,0.02596502566464349,0.7776824066823133,0.04960145725268247,0.04960145725268247
107,0.8353174701333046,0.03199809805098792,0.03199809805098792,0.7922746813860062,0.04815687503670163,0.04815687503670163
108,0.8730158805847168,0.0275122829750924,0.0275122829750924,0.800858371771968,0.048869647128204075,0.048869647128204075
109,0.8313492159876559,0.03649126061645802,0.03649126061645802,0.800858371771968,0.048592778219966826,0.048592778219966826
110,0.8432539775967598,0.0340643725260937,0.0340643725260937,0.7871244666530339,0.049370874418093486,0.049370874418093486
111,0.8293650895357132,0.0338063150864198,0.0338063150864198,0.7751072995396643,0.049872080750903124,0.049872080750903124
112,0.8571428652438853,0.03051642028892982,0.03051642028892982,0.7708154542123811,0.050095548140679305,0.050095548140679305
113,0.8670634999871254,0.028681461358751728,0.028681461358751728,0.7793991453146218,0.04751988574015485,0.04751988574015485
114,0.8650793727073405,0.028626123598870536,0.028626123598870536,0.7957081581006235,0.048532148264053845,0.048532148264053845
115,0.8591269925236702,0.028571128955971088,0.028571128955971088,0.7974248959271182,0.04803704941339483,0.04803704941339483
116,0.8591269921097491,0.02768376523615896,0.02768376523615896,0.7922746810278667,0.048230378090990636,0.048230378090990636
117,0.8849206417798996,0.026935731161049463,0.026935731161049463,0.7811158833201862,0.047914409141219735,0.047914409141219735
118,0.8769841339025233,0.026278330625549035,0.026278330625549035,0.7905579431118371,0.04704303998642537,0.04704303998642537
119,0.8551587379641004,0.02989185197980583,0.02989185197980583,0.7922746812069364,0.04757544058343443,0.04757544058343443
120,0.8849206417798996,0.027022637240912042,0.027022637240912042,0.8017167409985874,0.04776109536393713,0.04776109536393713
121,0.8432539771828387,0.03291216220047014,0.03291216220047014,0.7854077287370044,0.04792154042740934,0.04792154042740934
122,0.8750000074505806,0.025756667267867468,0.025756667267867468,0.8060085870165682,0.045899589166144034,0.045899589166144034
123,0.871031753718853,0.02769448460862299,0.02769448460862299,0.8394849817512373,0.045074195712023174,0.045074195712023174
124,0.871031753718853,0.028921750819184428,0.028921750819184428,0.7793991451355521,0.04718341347873275,0.04718341347873275
125,0.8531746115121577,0.031414210844054144,0.031414210844054144,0.7854077289928183,0.046432460906332726,0.046432460906332726
126,0.8849206417798996,0.024603557531413064,0.024603557531413064,0.7811158831411166,0.04600484792998604,0.04600484792998604
127,0.8690476264390681,0.029843217755114892,0.029843217755114892,0.7828326216838902,0.04662077904246448,0.04662077904246448
128,0.8670634995732043,0.026563737610154528,0.026563737610154528,0.8000000030697672,0.046170197504890556,0.046170197504890556
129,0.8928571492433548,0.024282437408045452,0.024282437408045452,0.8248927068684746,0.0452886263371743,0.0452886263371743
130,0.8789682611823082,0.025655274778222922,0.025655274778222922,0.8017167409090525,0.04675528224649179,0.04675528224649179
131,0.859126991695828,0.02831936915107589,0.02831936915107589,0.7939914192125009,0.04718033440327074,0.04718033440327074
132,0.8928571492433548,0.0239154147156013,0.0239154147156013,0.7982832649746678,0.04530958370511334,0.04530958370511334
133,0.851190485060215,0.030199725496155832,0.030199725496155832,0.7716738234390005,0.04682756907066459,0.04682756907066459
134,0.880952388048172,0.024635496966463204,0.024635496966463204,0.7828326216838902,0.04591941711595626,0.04591941711595626
135,0.8750000074505806,0.025772537548618857,0.025772537548618857,0.7871244670111734,0.046300791228356286,0.046300791228356286
136,0.8630952462553978,0.02964281509452525,0.02964281509452525,0.7776824069509178,0.04721542916808123,0.04721542916808123
137,0.8412698499030538,0.0323808171475927,0.0323808171475927,0.794849788874004,0.04597777738208929,0.04597777738208929
138,0.9067460373044014,0.019858637469749536,0.019858637469749536,0.7914163123384566,0.04519566715439734,0.04519566715439734
139,0.8888888955116272,0.023150195378144015,0.023150195378144015,0.8034334797076401,0.04463591134368502,0.04463591134368502
140,0.90079365670681,0.02085627776493008,0.02085627776493008,0.7914163121593868,0.04486674785249077,0.04486674785249077
141,0.890873022377491,0.026524720057043143,0.026524720057043143,0.7836909907314399,0.04562643005889678,0.04562643005889678
142,0.8750000070366595,0.02730115409778793,0.02730115409778793,0.8017167413567269,0.044461709362320384,0.044461709362320384
143,0.8769841343164444,0.027595872738553833,0.027595872738553833,0.8351931366030239,0.04338980423709861,0.04338980423709861
144,0.8789682611823082,0.024437388945241563,0.024437388945241563,0.8094420625160692,0.045457525269186304,0.045457525269186304
145,0.8769841343164444,0.023393259302085627,0.023393259302085627,0.811158800969308,0.04410377648781688,0.04410377648781688
146,0.8730158805847168,0.02631787415318993,0.02631787415318993,0.7974248959399088,0.04401268225448145,0.04401268225448145
147,0.90079365670681,0.023964601004990982,0.023964601004990982,0.7879828359691882,0.0442618250605031,0.0442618250605031
148,0.8829365149140358,0.022482883627364773,0.022482883627364773,0.7931330502544861,0.0454274733112378,0.0454274733112378
149,0.8888888950977061,0.023830634146482527,0.023830634146482527,0.8068669559873737,0.04238396297134018,0.04238396297134018
150,0.8750000074505806,0.026536119759031054,0.026536119759031054,0.7871244667425688,0.044027748172692734,0.044027748172692734
151,0.8849206413659785,0.023761624561302597,0.023761624561302597,0.8120171703749972,0.043495096021061816,0.043495096021061816
152,0.871031753718853,0.028926500586547062,0.028926500586547062,0.8120171703749972,0.042921911319536966,0.042921911319536966
153,0.9027777835726738,0.020691266411126383,0.020691266411126383,0.8000000031720926,0.04280853491474887,0.04280853491474887
154,0.8769841339025233,0.02555998868370403,0.02555998868370403,0.8025751112740439,0.044148708245892385,0.044148708245892385
155,0.878968260354466,0.026240967064950382,0.026240967064950382,0.8592274707402282,0.041490283476153196,0.041490283476153196
156,0.8829365149140358,0.025006098783099635,0.025006098783099635,0.8094420625160692,0.04441019571730427,0.04441019571730427
157,0.8730158805847168,0.024527460660061076,0.024527460660061076,0.8266094454112483,0.0432638188946005,0.0432638188946005
158,0.8710317533049319,0.027280471485331265,0.027280471485331265,0.8480686725848734,0.04146602400930002,0.04146602400930002
159,0.9047619104385376,0.02160825624014251,0.02160825624014251,0.8008583719510377,0.043833371680218614,0.043833371680218614
160,0.9186507984995842,0.019357678571800027,0.019357678571800027,0.7965665267132894,0.04263535294576714,0.04263535294576714
161,0.9047619104385376,0.023141400637137446,0.023141400637137446,0.79570815748667,0.04254616016732201,0.04254616016732201
162,0.8988095298409462,0.02223829831079153,0.02223829831079153,0.8077253253035279,0.0411155259622253,0.0411155259622253
163,0.8928571492433548,0.02221789688903502,0.02221789688903502,0.7811158828725119,0.04342335627182956,0.04342335627182956
164,0.8849206417798996,0.025562763461493887,0.025562763461493887,0.8420600886252817,0.04025225104212299,0.04025225104212299
165,0.9047619104385376,0.022269069631066587,0.022269069631066587,0.8248927067149863,0.04072021034014976,0.04072021034014976
166,0.890873022377491,0.02380173087375523,0.02380173087375523,0.8000000032616276,0.04082455914755209,0.04082455914755209
167,0.8869047686457634,0.02422030554023675,0.02422030554023675,0.796566526981894,0.04180254865658001,0.04180254865658001
168,0.8948412761092186,0.023746659762966575,0.023746659762966575,0.8248927074184745,0.04012604615231739,0.04012604615231739
169,0.8849206417798996,0.02366474206024173,0.02366474206024173,0.8068669565245828,0.04126994714403727,0.04126994714403727
170,0.880952388048172,0.024898572483127483,0.024898572483127483,0.8051502176364604,0.040412855021333495,0.040412855021333495
171,0.890873022377491,0.02347782550375794,0.02347782550375794,0.7871244670111734,0.04213099556686398,0.04213099556686398
172,0.8968254029750824,0.02193741832100689,0.02193741832100689,0.8197424919820139,0.041336367444750284,0.041336367444750284
173,0.9285714328289032,0.017053668709195335,0.017053668709195335,0.7948497884391204,0.041159614144278614,0.041159614144278614
174,0.90079365670681,0.02178937314117017,0.02178937314117017,0.7845493591522454,0.042029286210822754,0.042029286210822754
175,0.8630952462553978,0.027443735492852284,0.027443735492852284,0.8480686728534781,0.04017145375264006,0.04017145375264006
176,0.8869047686457634,0.025367205420884095,0.025367205420884095,0.8300429216014469,0.04091496193912698,0.04091496193912698
177,0.9146825447678566,0.021422095069182332,0.021422095069182332,0.8231759693233752,0.04099792591119537,0.04099792591119537
178,0.9087301637563441,0.020412615856912453,0.020412615856912453,0.8257510761846288,0.039886945049862454,0.039886945049862454
179,0.9047619104385376,0.0224789368520659,0.0224789368520659,0.7896995741538224,0.04116476415352086,0.04116476415352086
180,0.8829365149140358,0.024688678340377617,0.024688678340377617,0.8257510761974196,0.03999408594270961,0.03999408594270961
181,0.9067460368904803,0.01947464823509411,0.01947464823509411,0.8300429218700516,0.03987853075274868,0.03987853075274868
182,0.8690476264390681,0.024719409627222275,0.024719409627222275,0.8326180288336308,0.03962624767647546,0.03962624767647546
183,0.9226190522313118,0.018793357764985155,0.018793357764985155,0.7845493593313152,0.04239338259298775,0.04239338259298775
184,0.9325396865606308,0.017266889466959076,0.017266889466959076,0.8592274711879027,0.038296119996545384,0.038296119996545384
185,0.8928571492433548,0.0228257952383299,0.0228257952383299,0.8085836932894498,0.041582969349415154,0.041582969349415154
186,0.90079365670681,0.022586090639480163,0.022586090639480163,0.8403433510673916,0.03734263344104607,0.03734263344104607
187,0.9067460368904803,0.018048571231348533,0.018048571231348533,0.8180257537973797,0.03958129003871907,0.03958129003871907
188,0.8750000074505806,0.025801152063852188,0.025801152063852188,0.8240343381023202,0.03820761713302553,0.03820761713302553
189,0.8670634999871254,0.02722866017049657,0.02722866017049657,0.8085836934685195,0.04046280565261357,0.04046280565261357
190,0.9087301637563441,0.02010599703519094,0.02010599703519094,0.8412017199358715,0.03766204560349178,0.03766204560349178
191,0.8928571488294337,0.02192146960826196,0.02192146960826196,0.8025751105833463,0.03968326530188037,0.03968326530188037
192,0.910714291036129,0.01922338272763429,0.01922338272763429,0.8085836940057288,0.04054556035086466,0.04054556035086466
193,0.8988095298409462,0.02200428213594326,0.02200428213594326,0.8248927063568467,0.03952735364743045,0.03952735364743045
194,0.8849206417798996,0.023952678449859377,0.023952678449859377,0.802575110135672,0.04218387704318222,0.04218387704318222
195,0.9226190522313118,0.01806585837301908,0.01806585837301908,0.8566523639557188,0.037393666165749406,0.037393666165749406
196,0.9126984179019928,0.02145511833623459,0.02145511833623459,0.7974248958503739,0.04034637177285508,0.04034637177285508
197,0.8968254021472402,0.02475857813240307,0.02475857813240307,0.8145922782339252,0.03938855713921203,0.03938855713921203
198,0.910714291036129,0.01987050759756433,0.01987050759756433,0.8497854109485774,0.037796660973733534,0.037796660973733534
199,0.9047619104385376,0.021353764359168456,0.021353764359168456,0.8291845529248274,0.03806013647975999,0.03806013647975999
200,0.8968254029750824,0.023242588862760587,0.023242588862760587,0.812017170554067,0.03891851286484082,0.03891851286484082
201,0.9067460373044014,0.01829044146223977,0.01829044146223977,0.8111588015960521,0.039067426157370674,0.039067426157370674
202,0.8829365149140358,0.023463841199878113,0.023463841199878113,0.7948497882600506,0.04139125385941511,0.04139125385941511
203,0.8968254029750824,0.019788258683143392,0.019788258683143392,0.8137339084700965,0.03890487385823895,0.03890487385823895
204,0.9007936562928889,0.019494058067923307,0.019494058067923307,0.8051502176364604,0.03898367453259113,0.03898367453259113
205,0.9246031790971756,0.01611557036125709,0.01611557036125709,0.8429184580309709,0.037209953372411245,0.037209953372411245
206,0.8869047682318423,0.023634031298570335,0.023634031298570335,0.8403433512592521,0.037326255784800824,0.037326255784800824
207,0.9027777835726738,0.020398717891010974,0.020398717891010974,0.8128755397806864,0.03832498374297642,0.03832498374297642
208,0.8888888955116272,0.023295770886357384,0.023295770886357384,0.7914163122489217,0.04032539252176702,0.04032539252176702
209,0.8948412761092186,0.0209853940464705,0.0209853940464705,0.8480686728534781,0.037951745317440125,0.037951745317440125
210,0.9087301641702652,0.02048116650904477,0.02048116650904477,0.8360515055610387,0.03859639043449743,0.03859639043449743
211,0.9146825447678566,0.0194105147808538,0.0194105147808538,0.787124466563499,0.04315799204500588,0.04315799204500588
212,0.9384920671582222,0.016520037256163453,0.016520037256163453,0.8008583721301075,0.03974138281736952,0.03974138281736952
213,0.9265873059630394,0.01645126856540931,0.01645126856540931,0.8326180289231656,0.03802336786265961,0.03802336786265961
214,0.9285714324149821,0.017303993436447247,0.017303993436447247,0.7957081578448095,0.040470180365168695,0.040470180365168695
215,0.910714291036129,0.01978316061003069,0.01978316061003069,0.8042918484993758,0.040329966320601325,0.040329966320601325
216,0.920634925365448,0.017819842423604213,0.017819842423604213,0.8489270414533533,0.03726848337287481,0.03726848337287481
217,0.9126984179019928,0.019425052622864314,0.019425052622864314,0.8566523634185095,0.03683564038050799,0.03683564038050799
218,0.8869047686457634,0.02210901845137414,0.02210901845137414,0.8034334794518262,0.03856857780981414,0.03856857780981414
219,0.890873022377491,0.02109918994230813,0.02109918994230813,0.824034337820925,0.03786898825272712,0.03786898825272712
220,0.8968254029750824,0.021151904739882512,0.021151904739882512,0.8420600893415606,0.03780269930439781,0.03780269930439781
221,0.9027777835726738,0.02074248977805837,0.02074248977805837,0.8935622341643076,0.03564663216398142,0.03564663216398142
222,0.9126984179019928,0.019150087263470696,0.019150087263470696,0.8180257544241238,0.03775581200176987,0.03775581200176987
223,0.9087301641702652,0.018992045253980905,0.018992045253980905,0.8781115907712044,0.03658185272972543,0.03658185272972543
224,0.9186507984995842,0.01837923930017698,0.01837923930017698,0.8180257546031936,0.03826466436951484,0.03826466436951484
225,0.9087301641702652,0.01893371861236422,0.01893371861236422,0.7845493598685244,0.042137188322626334,0.042137188322626334
226,0.90079365670681,0.021344258388934476,0.021344258388934476,0.802575110762416,0.03870658882572086,0.03870658882572086
227,0.8888888955116272,0.022230616319373238,0.022230616319373238,0.8626609471990315,0.037264923550654035,0.037264923550654035
228,0.9424603208899498,0.01487653088740141,0.01487653088740141,0.8386266127036877,0.03672083998146466,0.03672083998146466
229,0.8988095294270251,0.020640660443051375,0.020640660443051375,0.848927041632423,0.03636537516296994,0.03636537516296994
230,0.8948412761092186,0.02240258004106484,0.02240258004106484,0.8068669556420248,0.039370023200455885,0.039370023200455885
231,0.9027777835726738,0.019163836071836866,0.019163836071836866,0.7991416340350082,0.038554403805066695,0.038554403805066695
232,0.9067460373044014,0.02009475029636734,0.02009475029636734,0.8755364834494856,0.03549231230820186,0.03549231230820186
233,0.9067460373044014,0.018717997777962916,0.018717997777962916,0.8652360545207503,0.035591926044351595,0.035591926044351595
234,0.8948412761092186,0.021809539177007134,0.021809539177007134,0.8600858398773128,0.03764615836876752,0.03764615836876752
235,0.8968254029750824,0.0200046920876452,0.0200046920876452,0.8137339084700965,0.03914211169175295,0.03914211169175295
236,0.9087301641702652,0.02047787631333146,0.02047787631333146,0.8197424924296882,0.03786827872427243,0.03786827872427243
237,0.8829365140861936,0.022091416556122567,0.022091416556122567,0.8291845526562228,0.03822338016276496,0.03822338016276496
238,0.9166666716337204,0.017238126460041612,0.017238126460041612,0.8300429216142376,0.03743750276275436,0.03743750276275436
239,0.9186507984995842,0.017423940210998506,0.017423940210998506,0.8309012909303919,0.03721532957627214,0.03721532957627214
240,0.9027777835726738,0.02017286375464917,0.02017286375464917,0.812875540049291,0.03804485343200132,0.03804485343200132
241,0.9067460373044014,0.01938227648255027,0.01938227648255027,0.822317599751407,0.03900995457437601,0.03900995457437601
242,0.9365079402923584,0.015934237316590345,0.015934237316590345,0.8643776854732006,0.03685804209214343,0.03685804209214343
243,0.9265873059630394,0.014918143941435523,0.014918143941435523,0.8506437800856619,0.03640282537573336,0.03640282537573336
244,0.90079365670681,0.020235613756085513,0.020235613756085513,0.8369098739051001,0.03732160038418721,0.03732160038418721
245,0.920634925365448,0.017080167060915603,0.017080167060915603,0.8223176001735,0.036416769826588945,0.036416769826588945
246,0.9166666716337204,0.018020958127130546,0.018020958127130546,0.8523605181807612,0.03728286894362577,0.03728286894362577
247,0.920634925365448,0.01781332089540734,0.01781332089540734,0.8085836941847986,0.037437674340917916,0.037437674340917916
248,0.910714291036129,0.01989845931408733,0.01989845931408733,0.8403433505557637,0.036789043942091613,0.036789043942091613
249,0.9226190522313118,0.017624021411797405,0.017624021411797405,0.8480686729430129,0.035196575508598046,0.035196575508598046
250,0.9027777835726738,0.021107384591434512,0.021107384591434512,0.8927038648481532,0.0336854055767887,0.0336854055767887
251,0.9246031790971756,0.01589060759084128,0.01589060759084128,0.8266094456798528,0.03562603302793702,0.03562603302793702
252,0.9067460373044014,0.01941037565443872,0.01941037565443872,0.849785411127647,0.03489058390941969,0.03489058390941969
253,0.920634925365448,0.018199160880006577,0.018199160880006577,0.8111588011483778,0.037127581889666486,0.037127581889666486
254,0.9067460373044014,0.01919524848254797,0.01919524848254797,0.820600861643517,0.036420758464093095,0.036420758464093095
255,0.9226190522313118,0.01765866268053489,0.01765866268053489,0.8686695305318791,0.03432352449895971,0.03432352449895971
256,0.9265873059630394,0.016733259727010993,0.016733259727010993,0.8738197449962468,0.03408774701377511,0.03408774701377511
257,0.9047619104385376,0.021674205739650967,0.021674205739650967,0.8660944235682999,0.03437329799057492,0.03437329799057492
258,0.9087301641702652,0.018514783232401695,0.018514783232401695,0.8085836943638682,0.03748161998422633,0.03748161998422633
259,0.9047619104385376,0.018884174663172517,0.018884174663172517,0.859227470919298,0.03475292835350003,0.03475292835350003
260,0.9047619104385376,0.02060860872047164,0.02060860872047164,0.8180257542322633,0.0363238527324962,0.0363238527324962
261,0.9126984179019928,0.020083681009055,0.020083681009055,0.8841201738354474,0.034603177857020065,0.034603177857020065
262,0.9285714328289032,0.015806302821349365,0.015806302821349365,0.8678111620215387,0.03396973275633104,0.03396973275633104
263,0.9126984179019928,0.018345177833503437,0.018345177833503437,0.8738197451753166,0.03372901858028214,0.03372901858028214
264,0.930555559694767,0.01486916989397792,0.01486916989397792,0.8248927072521954,0.03555295883591628,0.03555295883591628
265,0.90079365670681,0.019365283957793307,0.019365283957793307,0.9004291861865653,0.03260870706173982,0.03260870706173982
266,0.9285714328289032,0.015169284905823588,0.015169284905823588,0.8394849818535629,0.03543166855970689,0.03543166855970689
267,0.9265873051351972,0.0161408897089738,0.0161408897089738,0.8197424921610836,0.03538011406313904,0.03538011406313904
268,0.9126984179019928,0.018662317043385376,0.018662317043385376,0.8746781142228662,0.03376725217882441,0.03376725217882441
269,0.8948412761092186,0.01975041830317221,0.01975041830317221,0.8420600892648165,0.0351804615571947,0.0351804615571947
270,0.9365079402923584,0.014365658588050993,0.014365658588050993,0.8884120193418004,0.032475491639172155,0.032475491639172155
271,0.9186507984995842,0.017216711085590457,0.017216711085590457,0.8394849817512373,0.03506869817628281,0.03506869817628281
272,0.9265873059630394,0.016156590555308666,0.016156590555308666,0.8008583722196423,0.03837153811443325,0.03837153811443325
273,0.9186507984995842,0.016767746815983427,0.016767746815983427,0.8755364830913461,0.03371109880655224,0.03371109880655224
274,0.9166666716337204,0.017543173421447338,0.017543173421447338,0.842060088650863,0.03493259590128965,0.03493259590128965
275,0.9246031790971756,0.01671892676596245,0.01671892676596245,0.8824034359194178,0.03305634217363943,0.03305634217363943
276,0.9107142906222079,0.017291875674143538,0.017291875674143538,0.8523605185389007,0.03438852210496037,0.03438852210496037
277,0.9047619104385376,0.01970324646633041,0.01970324646633041,0.8412017200254064,0.035527660351870154,0.035527660351870154
278,0.9186507984995842,0.017562093496407114,0.017562093496407114,0.8463519343107043,0.0339978214591446,0.0339978214591446
279,0.9146825443539355,0.018705142838472157,0.018705142838472157,0.8703862688060482,0.03322835608708978,0.03322835608708978
280,0.9087301641702652,0.02004934775676601,0.02004934775676601,0.8686695307109489,0.03302574374389884,0.03302574374389884
281,0.9027777835726738,0.01938117492641646,0.01938117492641646,0.8935622338061681,0.03225716680556604,0.03225716680556604
282,0.9246031790971756,0.016711734712468267,0.016711734712468267,0.8875536504733205,0.032579576421584815,0.032579576421584815
283,0.9285714328289032,0.01622320439522203,0.01622320439522203,0.8824034360984876,0.03221480580212543,0.03221480580212543
284,0.9325396861467097,0.014759075983117024,0.014759075983117024,0.8377682438352078,0.034478049118656776,0.034478049118656776
285,0.8968254029750824,0.020215981305025506,0.020215981305025506,0.8987124481810009,0.03141814908908622,0.03141814908908622
286,0.9246031790971756,0.01668713838265982,0.01668713838265982,0.851502148864607,0.03350622588143252,0.03350622588143252
287,0.9126984179019928,0.017577633450350225,0.017577633450350225,0.8523605180912264,0.034129538868214855,0.034129538868214855
288,0.8928571492433548,0.023159781370648287,0.023159781370648287,0.862660947557171,0.03355279745143732,0.03355279745143732
289,0.9226190522313118,0.016863020463966275,0.016863020463966275,0.878111590413065,0.03256574676654888,0.03256574676654888
290,0.9166666716337204,0.017378804579847282,0.017378804579847282,0.8824034360089528,0.03305201301087268,0.03305201301087268
291,0.9087301641702652,0.02007149966751361,0.02007149966751361,0.8583691018717483,0.034156120324626484,0.034156120324626484
292,0.9424603208899498,0.013013552092565482,0.013013552092565482,0.8643776850255263,0.034758571611017426,0.034758571611017426
293,0.920634925365448,0.018156378025701594,0.018156378025701594,0.8746781140437965,0.033200509974933574,0.033200509974933574
294,0.9126984179019928,0.019388803717043226,0.019388803717043226,0.8618025781514819,0.033166215535677605,0.033166215535677605
295,0.9067460368904803,0.020455862892756867,0.020455862892756867,0.8884120195208701,0.03294431871930056,0.03294431871930056
296,0.9226190522313118,0.01649102542948337,0.01649102542948337,0.903862662376764,0.031415585955559364,0.031415585955559364
297,0.940476194024086,0.013734290467052941,0.013734290467052941,0.8266094456031087,0.03379438716750447,0.03379438716750447
298,0.9166666716337204,0.017635316605163907,0.017635316605163907,0.8188841235484177,0.034797564935167676,0.034797564935167676
299,0.9146825447678566,0.016956583228951178,0.016956583228951178,0.9090128773783409,0.030890077607196514,0.030890077607196514
300,0.9226190522313118,0.017842010578584047,0.017842010578584047,0.8686695305318791,0.03182985009070877,0.03182985009070877
301,0.8988095294270251,0.022201646561117942,0.022201646561117942,0.8618025777038075,0.034197785503113774,0.034197785503113774
302,0.9226190522313118,0.016622360410514778,0.016622360410514778,0.8394849816617024,0.03446449034735639,0.03446449034735639
303,0.9325396865606308,0.015095657751670741,0.015095657751670741,0.8214592307933922,0.0348436725332304,0.0348436725332304
304,0.930555559694767,0.01413930561243938,0.01413930561243938,0.8583691013345391,0.03291706891972424,0.03291706891972424
305,0.9325396865606308,0.013688698400073918,0.013688698400073918,0.8429184581205057,0.03382321378272373,0.03382321378272373
306,0.9345238134264946,0.013809618600766448,0.013809618600766448,0.8806866977347837,0.031639003259584395,0.031639003259584395
307,0.9285714328289032,0.016665056156954152,0.016665056156954152,0.8283261834423941,0.03452618153071593,0.03452618153071593
308,0.9246031790971756,0.016680714851746516,0.016680714851746516,0.8557939946395645,0.03302322705980814,0.03302322705980814
309,0.940476194024086,0.012514665221589085,0.012514665221589085,0.8583691015136088,0.032814235619710946,0.032814235619710946
310,0.9523809552192688,0.012206449597215396,0.012206449597215396,0.8866952808885615,0.03036870487781137,0.03036870487781137
311,0.9365079402923584,0.014142250732195154,0.014142250732195154,0.8901287576159694,0.03045990184419271,0.03045990184419271
312,0.9246031790971756,0.016881461741832027,0.016881461741832027,0.9012875557713242,0.030736164779971816,0.030736164779971816
313,0.9325396865606308,0.015084707060294831,0.015084707060294831,0.812017170554067,0.035262365135033925,0.035262365135033925
314,0.9285714328289032,0.015534836376471302,0.015534836376471302,0.837768243656138,0.03297592137344175,0.03297592137344175
315,0.9226190522313118,0.01749088731867232,0.01749088731867232,0.8909871264844493,0.030825154745613065,0.030825154745613065
316,0.9246031790971756,0.016402353244302503,0.016402353244302503,0.8274678146378677,0.033437094111667225,0.033437094111667225
317,0.9186507984995842,0.018292170989500138,0.018292170989500138,0.8523605182702961,0.032298186029781496,0.032298186029781496
318,0.9226190522313118,0.01709589123212633,0.01709589123212633,0.8643776852941308,0.031826804084074505,0.031826804084074505
319,0.950396828353405,0.012652483850615681,0.012652483850615681,0.8557939946395645,0.03201342551185552,0.03201342551185552
320,0.9265873059630394,0.015810605421898397,0.015810605421898397,0.8678111614843295,0.03186469283382177,0.03186469283382177
321,0.9345238134264946,0.01243081429050916,0.01243081429050916,0.8695278997584985,0.03209395244988947,0.03209395244988947
322,0.9246031790971756,0.01619269795983453,0.01619269795983453,0.8695278995794288,0.032177877011218575,0.032177877011218575
323,0.9285714328289032,0.015063981259648548,0.015063981259648548,0.9055794008300028,0.03037802075637456,0.03037802075637456
324,0.9365079398784373,0.014543566524417252,0.014543566524417252,0.8961373411278868,0.030423095970574143,0.030423095970574143
325,0.9424603208899498,0.013227142937567906,0.013227142937567906,0.8463519346688438,0.03281111608506218,0.03281111608506218
326,0.9186507984995842,0.017648104655967875,0.017648104655967875,0.8781115907712044,0.03155762155299843,0.03155762155299843
327,0.9325396865606308,0.01532946410831452,0.01532946410831452,0.8892703882102803,0.0314326162606147,0.0314326162606147
328,0.9226190518173907,0.01765395792729881,0.01765395792729881,0.9133047224370195,0.02926229969561234,0.02926229969561234
329,0.9226190522313118,0.016585390652886015,0.016585390652886015,0.8875536502942507,0.030855392556834112,0.030855392556834112
330,0.9384920671582222,0.014460797371106714,0.014460797371106714,0.8875536504733205,0.03080043409318969,0.03080043409318969
331,0.9365079402923584,0.014298288642597376,0.014298288642597376,0.858369101424074,0.03270376488302785,0.03270376488302785
332,0.9345238134264946,0.014204335642261867,0.014204335642261867,0.8927038647586184,0.03092963993346084,0.03092963993346084
333,0.9384920671582222,0.013857527578996573,0.013857527578996573,0.866952792347245,0.03168739174225961,0.03168739174225961
334,0.9523809552192688,0.010992006742526428,0.010992006742526428,0.8489270419010277,0.032821071679852654,0.032821071679852654
335,0.8968254029750824,0.021540361386541917,0.021540361386541917,0.8600858397877779,0.032046779867890535,0.032046779867890535
336,0.9384920671582222,0.014854364171899052,0.014854364171899052,0.8729613759486972,0.03122946961841321,0.03122946961841321
337,0.940476194024086,0.013035839563915234,0.013035839563915234,0.8866952810676313,0.03020149935915101,0.03020149935915101
338,0.940476194024086,0.014375545879475895,0.014375545879475895,0.8695278996689637,0.03128767214198151,0.03128767214198151
339,0.9384920671582222,0.012629204194682744,0.012629204194682744,0.8712446380326676,0.03216268243200946,0.03216268243200946
340,0.9285714328289032,0.015487334860987781,0.015487334860987781,0.8695278997584985,0.03186887632756929,0.03186887632756929
341,0.9543650820851326,0.010981393518603808,0.010981393518603808,0.8866952814257708,0.030852847012843524,0.030852847012843524
342,0.9464285746216774,0.01265492540851988,0.01265492540851988,0.8763948523179655,0.031967572937069776,0.031967572937069776
343,0.930555559694767,0.014458828010497705,0.014458828010497705,0.8583691016031437,0.032561000279119054,0.032561000279119054
344,0.9384920671582222,0.014972990474512294,0.014972990474512294,0.868669530621414,0.03197675691286517,0.03197675691286517
345,0.9226190522313118,0.016378157703507493,0.016378157703507493,0.8712446378535978,0.031967179574555644,0.031967179574555644
346,0.9087301641702652,0.01837897403843019,0.01837897403843019,0.9081545081517215,0.029276752570562992,0.029276752570562992
347,0.9246031790971756,0.01690885056783979,0.01690885056783979,0.8678111614843295,0.032269909362787036,0.032269909362787036
348,0.9146825447678566,0.018497012770239962,0.018497012770239962,0.8849785431516017,0.03085230687756348,0.03085230687756348
